…
Explorando Variables Discretas

¿Cuántos temas hay?

legos %>% count(Theme, sort = TRUE)

## # A tibble: 115 x 2
##                      Theme     n
##                      <chr> <int>
##  1                   Duplo   471
##  2               Star Wars   379
##  3                    Town   314
##  4 Collectable Minifigures   311
##  5                    City   282
##  6                Bionicle   276
##  7                 Technic   243
##  8                 Creator   219
##  9                  Castle   206
## 10                  Racers   195
## # ... with 105 more rows
…
